…
1. Use the function(s) of your choice to get an idea of its structure, including how NA's are treated. Are the data tidy?  

```r
deserts
```

```
## # A tibble: 34,786 × 13
##    record_id month   day  year plot_id species_id sex   hindfoot_length weight
##        <dbl> <dbl> <dbl> <dbl>   <dbl> <chr>      <chr>           <dbl>  <dbl>
##  1         1     7    16  1977       2 NL         M                  32     NA
##  2         2     7    16  1977       3 NL         M                  33     NA
##  3         3     7    16  1977       2 DM         F                  37     NA
##  4         4     7    16  1977       7 DM         M                  36     NA
##  5         5     7    16  1977       3 DM         M                  35     NA
##  6         6     7    16  1977       1 PF         M                  14     NA
##  7         7     7    16  1977       2 PE         F                  NA     NA
##  8         8     7    16  1977       1 DM         M                  37     NA
##  9         9     7    16  1977       1 DM         F                  34     NA
## 10        10     7    16  1977       6 PF         F                  20     NA
## # … with 34,776 more rows, and 4 more variables: genus <chr>, species <chr>,
## #   taxa <chr>, plot_type <chr>
```
…
```
## # A tibble: 1 × 3
##   totn_genera totn_species tot_observations
##         <int>        <int>            <int>
## 1          26           26            34786
```

```r
deserts%>% 
  count(species, sort=T)
```

```
## # A tibble: 40 × 2
##    species          n
##    <chr>        <int>
##  1 merriami     10596
##  2 penicillatus  3123
##  3 ordii         3027
##  4 baileyi       2891
##  5 megalotis     2609
##  6 spectabilis   2504
##  7 torridus      2249
##  8 flavus        1597
##  9 eremicus      1299
## 10 albigula      1252
## # … with 30 more rows
```
…
7. [Dipodomys merriami](https://en.wikipedia.org/wiki/Merriam's_kangaroo_rat) is the most frequently sampled animal in the study. How have the number of observations of this species changed over the years included in the study?

```r
deserts%>%
  filter(species_id=="DM")%>%
  group_by(year)%>%
  summarize(number_observed=n())
```

```
## # A tibble: 26 × 2
##     year number_observed
##    <dbl>           <int>
##  1  1977             264
##  2  1978             389
##  3  1979             209
##  4  1980             493
##  5  1981             559
##  6  1982             609
##  7  1983             528
##  8  1984             396
##  9  1985             667
## 10  1986             406
## # … with 16 more rows
```
…
9. Which two species have, on average, the highest weight? Once you have identified them, make a new column that is a ratio of `weight` to `hindfoot_length`. Make a plot that shows the range of this new ratio and fill by sex.

```r
deserts%>%
  filter(!is.na(weight))%>%
  group_by(species)%>%
  summarise(mean_weight=mean(weight))%>%
  arrange(desc(mean_weight))
```

```
## # A tibble: 22 × 2
##    species      mean_weight
##    <chr>              <dbl>
##  1 albigula           159. 
##  2 spectabilis        120. 
##  3 spilosoma           93.5
##  4 hispidus            65.6
##  5 fulviventer         58.9
##  6 ochrognathus        55.4
##  7 ordii               48.9
##  8 merriami            43.2
##  9 baileyi             31.7
## 10 leucogaster         31.6
## # … with 12 more rows
```
…
