…
```r
names(elephants)
```

```
## [1] "Age"    "Height" "Sex"
```

```r
elephants <- janitor::clean_names(elephants)
elephants
```

```
## # A tibble: 288 × 3
##      age height sex  
##    <dbl>  <dbl> <chr>
##  1   1.4   120  M    
##  2  17.5   227  M    
##  3  12.8   235  M    
##  4  11.2   210  M    
##  5  12.7   220  M    
##  6  12.7   189  M    
##  7  12.2   225  M    
##  8  12.2   204  M    
##  9  28.2   266. M    
## 10  11.7   233  M    
## # … with 278 more rows
```

```r
elephants%>%
  mutate_at(vars("sex"), factor)
```

```
## # A tibble: 288 × 3
##      age height sex  
##    <dbl>  <dbl> <fct>
##  1   1.4   120  M    
##  2  17.5   227  M    
##  3  12.8   235  M    
##  4  11.2   210  M    
##  5  12.7   220  M    
##  6  12.7   189  M    
##  7  12.2   225  M    
##  8  12.2   204  M    
##  9  28.2   266. M    
## 10  11.7   233  M    
## # … with 278 more rows
```

5. (2 points) How many male and female elephants are represented in the data?

**Males**

```r
male_elephants<-
  elephants%>%
  filter(sex=="M")
male_elephants
```

```
## # A tibble: 138 × 3
##      age height sex  
##    <dbl>  <dbl> <chr>
##  1   1.4   120  M    
##  2  17.5   227  M    
##  3  12.8   235  M    
##  4  11.2   210  M    
##  5  12.7   220  M    
##  6  12.7   189  M    
##  7  12.2   225  M    
##  8  12.2   204  M    
##  9  28.2   266. M    
## 10  11.7   233  M    
## # … with 128 more rows
```
#There are 138 male elephants present in the data. 

**Females**

```r
female_elephants<-
  elephants%>%
  filter(sex=="F")
female_elephants
```

```
## # A tibble: 150 × 3
##      age height sex  
##    <dbl>  <dbl> <chr>
##  1 11.1   218.  F    
##  2  2.33  133.  F    
##  3  2.42  145.  F    
##  4 26.5   206.  F    
##  5 11.8   207   F    
##  6  0.33   85.6 F    
##  7 26.8   227.  F    
##  8 13.4   203   F    
##  9 28.4   228.  F    
## 10  2.08  131.  F    
## # … with 140 more rows
```
…
```r
view(gabon)
```

```r
gabon <- janitor::clean_names(gabon)
gabon
```

```
## # A tibble: 24 × 26
##    transect_id distance hunt_cat num_households land_use veg_rich veg_stems
##          <dbl>    <dbl> <chr>             <dbl> <chr>       <dbl>     <dbl>
##  1           1     7.14 Moderate             54 Park         16.7      31.2
##  2           2    17.3  None                 54 Park         15.8      37.4
##  3           2    18.3  None                 29 Park         16.9      32.3
##  4           3    20.8  None                 29 Logging      12.4      29.4
##  5           4    16.0  None                 29 Park         17.1      36  
##  6           5    17.5  None                 29 Park         16.5      29.2
##  7           6    24.1  None                 29 Park         14.8      31.2
##  8           7    19.8  None                 54 Logging      13.2      32.6
##  9           8     5.78 High                 25 Neither      12.6      23.7
## 10           9     5.13 High                 73 Logging      16        27.1
## # … with 14 more rows, and 19 more variables: veg_liana <dbl>, veg_dbh <dbl>,
## #   veg_canopy <dbl>, veg_understory <dbl>, ra_apes <dbl>, ra_birds <dbl>,
## #   ra_elephant <dbl>, ra_monkeys <dbl>, ra_rodent <dbl>, ra_ungulate <dbl>,
## #   rich_all_species <dbl>, evenness_all_species <dbl>,
## #   diversity_all_species <dbl>, rich_bird_species <dbl>,
## #   evenness_bird_species <dbl>, diversity_bird_species <dbl>,
## #   rich_mammal_species <dbl>, evenness_mammal_species <dbl>, …
```
…
```r
gabon%>%
  mutate_at(vars("land_use", "hunt_cat"), factor)
```

```
## # A tibble: 24 × 26
##    transect_id distance hunt_cat num_households land_use veg_rich veg_stems
##          <dbl>    <dbl> <fct>             <dbl> <fct>       <dbl>     <dbl>
##  1           1     7.14 Moderate             54 Park         16.7      31.2
##  2           2    17.3  None                 54 Park         15.8      37.4
##  3           2    18.3  None                 29 Park         16.9      32.3
##  4           3    20.8  None                 29 Logging      12.4      29.4
##  5           4    16.0  None                 29 Park         17.1      36  
##  6           5    17.5  None                 29 Park         16.5      29.2
##  7           6    24.1  None                 29 Park         14.8      31.2
##  8           7    19.8  None                 54 Logging      13.2      32.6
##  9           8     5.78 High                 25 Neither      12.6      23.7
## 10           9     5.13 High                 73 Logging      16        27.1
## # … with 14 more rows, and 19 more variables: veg_liana <dbl>, veg_dbh <dbl>,
## #   veg_canopy <dbl>, veg_understory <dbl>, ra_apes <dbl>, ra_birds <dbl>,
## #   ra_elephant <dbl>, ra_monkeys <dbl>, ra_rodent <dbl>, ra_ungulate <dbl>,
## #   rich_all_species <dbl>, evenness_all_species <dbl>,
## #   diversity_all_species <dbl>, rich_bird_species <dbl>,
## #   evenness_bird_species <dbl>, diversity_bird_species <dbl>,
## #   rich_mammal_species <dbl>, evenness_mammal_species <dbl>, …
```
…
