…
```
## [1] TRUE
```

2. Use `janitor` to rename the columns and make them easier to use. As part of this cleaning step, change `country`, `isscaap_group_number`, `asfis_species_number`, and `fao_major_fishing_area` to data class factor. 

```r
fisheries<- janitor::clean_names(fisheries)
fisheries
```

```
## # A tibble: 17,692 × 71
##    country common_name    isscaap_group_nu… isscaap_taxonomic_… asfis_species_n…
##    <chr>   <chr>                      <dbl> <chr>               <chr>           
##  1 Albania Angelsharks, …                38 Sharks, rays, chim… 10903XXXXX      
##  2 Albania Atlantic boni…                36 Tunas, bonitos, bi… 1750100101      
##  3 Albania Barracudas nei                37 Miscellaneous pela… 17710001XX      
##  4 Albania Blue and red …                45 Shrimps, prawns     2280203101      
##  5 Albania Blue whiting(…                32 Cods, hakes, haddo… 1480403301      
##  6 Albania Bluefish                      37 Miscellaneous pela… 1702021301      
##  7 Albania Bogue                         33 Miscellaneous coas… 1703926101      
##  8 Albania Caramote prawn                45 Shrimps, prawns     2280100117      
##  9 Albania Catsharks, nu…                38 Sharks, rays, chim… 10801003XX      
## 10 Albania Common cuttle…                57 Squids, cuttlefish… 3210200202      
## # … with 17,682 more rows, and 66 more variables: asfis_species_name <chr>,
## #   fao_major_fishing_area <dbl>, measure <chr>, x1950 <chr>, x1951 <chr>,
## #   x1952 <chr>, x1953 <chr>, x1954 <chr>, x1955 <chr>, x1956 <chr>,
## #   x1957 <chr>, x1958 <chr>, x1959 <chr>, x1960 <chr>, x1961 <chr>,
## #   x1962 <chr>, x1963 <chr>, x1964 <chr>, x1965 <chr>, x1966 <chr>,
## #   x1967 <chr>, x1968 <chr>, x1969 <chr>, x1970 <chr>, x1971 <chr>,
## #   x1972 <chr>, x1973 <chr>, x1974 <chr>, x1975 <chr>, x1976 <chr>, …
```


```r
fisheries<-clean_names(fisheries)%>%
  mutate_at(vars("country", "isscaap_group_number", "asfis_species_number", "fao_major_fishing_area"), factor)
fisheries
```

```
## # A tibble: 17,692 × 71
##    country common_name    isscaap_group_nu… isscaap_taxonomic_… asfis_species_n…
##    <fct>   <chr>          <fct>             <chr>               <fct>           
##  1 Albania Angelsharks, … 38                Sharks, rays, chim… 10903XXXXX      
##  2 Albania Atlantic boni… 36                Tunas, bonitos, bi… 1750100101      
##  3 Albania Barracudas nei 37                Miscellaneous pela… 17710001XX      
##  4 Albania Blue and red … 45                Shrimps, prawns     2280203101      
##  5 Albania Blue whiting(… 32                Cods, hakes, haddo… 1480403301      
##  6 Albania Bluefish       37                Miscellaneous pela… 1702021301      
##  7 Albania Bogue          33                Miscellaneous coas… 1703926101      
##  8 Albania Caramote prawn 45                Shrimps, prawns     2280100117      
##  9 Albania Catsharks, nu… 38                Sharks, rays, chim… 10801003XX      
## 10 Albania Common cuttle… 57                Squids, cuttlefish… 3210200202      
## # … with 17,682 more rows, and 66 more variables: asfis_species_name <chr>,
## #   fao_major_fishing_area <fct>, measure <chr>, x1950 <chr>, x1951 <chr>,
## #   x1952 <chr>, x1953 <chr>, x1954 <chr>, x1955 <chr>, x1956 <chr>,
## #   x1957 <chr>, x1958 <chr>, x1959 <chr>, x1960 <chr>, x1961 <chr>,
## #   x1962 <chr>, x1963 <chr>, x1964 <chr>, x1965 <chr>, x1966 <chr>,
## #   x1967 <chr>, x1968 <chr>, x1969 <chr>, x1970 <chr>, x1971 <chr>,
## #   x1972 <chr>, x1973 <chr>, x1974 <chr>, x1975 <chr>, x1976 <chr>, …
```
…
4. Refocus the data only to include country, isscaap_taxonomic_group, asfis_species_name, asfis_species_number, year, catch.

```r
fisheries_tidy %>% 
  group_by("country", "isscaap_taxonomic_group", "asfis_species_name", "asfis_species_number", "year", "catch") 
```

```
## # A tibble: 376,771 × 16
## # Groups:   "country", "isscaap_taxonomic_group", "asfis_species_name",
## #   "asfis_species_number", "year", "catch" [1]
##    country common_name     isscaap_group_nu… isscaap_taxonomic… asfis_species_n…
##    <fct>   <chr>           <fct>             <chr>              <fct>           
##  1 Albania Angelsharks, s… 38                Sharks, rays, chi… 10903XXXXX      
##  2 Albania Angelsharks, s… 38                Sharks, rays, chi… 10903XXXXX      
##  3 Albania Angelsharks, s… 38                Sharks, rays, chi… 10903XXXXX      
##  4 Albania Angelsharks, s… 38                Sharks, rays, chi… 10903XXXXX      
##  5 Albania Angelsharks, s… 38                Sharks, rays, chi… 10903XXXXX      
##  6 Albania Angelsharks, s… 38                Sharks, rays, chi… 10903XXXXX      
##  7 Albania Angelsharks, s… 38                Sharks, rays, chi… 10903XXXXX      
##  8 Albania Angelsharks, s… 38                Sharks, rays, chi… 10903XXXXX      
##  9 Albania Angelsharks, s… 38                Sharks, rays, chi… 10903XXXXX      
## 10 Albania Angelsharks, s… 38                Sharks, rays, chi… 10903XXXXX      
## # … with 376,761 more rows, and 11 more variables: asfis_species_name <chr>,
## #   fao_major_fishing_area <fct>, measure <chr>, year <dbl>, catch <dbl>,
## #   "country" <chr>, "isscaap_taxonomic_group" <chr>,
## #   "asfis_species_name" <chr>, "asfis_species_number" <chr>, "year" <chr>,
## #   "catch" <chr>
```
…
6. Which country had the largest overall catch in the year 2000?

```r
fisheries_tidy%>%
  select(country, year, catch)%>%
  filter(year==2000)%>%
  arrange(desc(catch))
```

```
## # A tibble: 8,793 × 3
##    country                   year catch
##    <fct>                    <dbl> <dbl>
##  1 China                     2000  9068
##  2 Peru                      2000  5717
##  3 Russian Federation        2000  5065
##  4 Viet Nam                  2000  4945
##  5 Chile                     2000  4299
##  6 China                     2000  3288
##  7 China                     2000  2782
##  8 United States of America  2000  2438
##  9 China                     2000  1234
## 10 Philippines               2000   999
## # … with 8,783 more rows
```
…
```r
fisheries_tidy %>% 
  filter(between(year,1990,2000),asfis_species_name=="Sardina pilchardus") %>% 
   group_by(country)%>%
  summarize(total_catch=sum(catch,na.rm=T)) %>% 
   arrange(desc(total_catch)) 
```

```
## # A tibble: 37 × 2
##    country               total_catch
##    <fct>                       <dbl>
##  1 Morocco                      7470
##  2 Spain                        3507
##  3 Russian Federation           1639
##  4 Ukraine                      1030
##  5 France                        966
##  6 Portugal                      818
##  7 Greece                        528
##  8 Italy                         507
##  9 Serbia and Montenegro         478
## 10 Denmark                       477
## # … with 27 more rows
```
…
```r
fisheries_tidy%>%
  filter(isscaap_taxonomic_group== "Squids, cuttlefishes, octopuses")%>%
  filter(between(year, 2008, 2012))%>%
  group_by(country)%>%
  filter(!is.na(catch))%>%
  summarise(total_catch=sum(catch, na.rm=T))
```

```
## # A tibble: 116 × 2
##    country        total_catch
##    <fct>                <dbl>
##  1 Albania                631
##  2 Algeria                162
##  3 American Samoa           1
##  4 Angola                 223
##  5 Argentina              814
##  6 Australia              806
##  7 Belgium                420
##  8 Belize                  65
##  9 Benin                    5
## 10 Brazil                  58
## # … with 106 more rows
```

9. Which species had the highest catch total between 2008-2012? (hint: Osteichthyes is not a species)

```r
fisheries_tidy%>%
  filter(year>=2008 & year<=2012)%>%
  group_by(asfis_species_name)%>%
  summarize(catch_total=sum(catch,na.rm=T))%>%
  arrange(desc(catch_total))
```

```
## # A tibble: 1,472 × 2
##    asfis_species_name    catch_total
##    <chr>                       <dbl>
##  1 Osteichthyes               107808
##  2 Theragra chalcogramma       41075
##  3 Engraulis ringens           35523
##  4 Katsuwonus pelamis          32153
##  5 Trichiurus lepturus         30400
##  6 Clupea harengus             28527
##  7 Thunnus albacares           20119
##  8 Scomber japonicus           14723
##  9 Gadus morhua                13253
## 10 Thunnus alalunga            12019
## # … with 1,462 more rows
```
#If Osteichthyes is not a species, then Theragra chalcogramma had the highest catch between 2008-2012

10. Use the data to do at least one analysis of your choice.

```r
fisheries_tidy%>%
  filter(isscaap_taxonomic_group== "Miscellaneous coastal fishes")%>%
  group_by(country)%>%
  filter(!is.na(catch))%>%
  summarise(Miscellaneous_catch=sum(catch, na.rm=T))%>%
arrange(desc(Miscellaneous_catch))
```

```
## # A tibble: 150 × 2
##    country                  Miscellaneous_catch
##    <fct>                                  <dbl>
##  1 China                                  74873
##  2 India                                  52678
##  3 Japan                                  50700
##  4 United States of America               42440
##  5 Indonesia                              32460
##  6 Philippines                            28218
##  7 Denmark                                25604
##  8 Spain                                  25410
##  9 Portugal                               25022
## 10 Malaysia                               21551
## # … with 140 more rows
```
…
