…
```r
superhero_powers
```

```
## # A tibble: 667 × 168
##    hero_names    agility accelerated_healing lantern_power_ring dimensional_awa…
##    <chr>         <lgl>   <lgl>               <lgl>              <lgl>           
##  1 3-D Man       TRUE    FALSE               FALSE              FALSE           
##  2 A-Bomb        FALSE   TRUE                FALSE              FALSE           
##  3 Abe Sapien    TRUE    TRUE                FALSE              FALSE           
##  4 Abin Sur      FALSE   FALSE               TRUE               FALSE           
##  5 Abomination   FALSE   TRUE                FALSE              FALSE           
##  6 Abraxas       FALSE   FALSE               FALSE              TRUE            
##  7 Absorbing Man FALSE   FALSE               FALSE              FALSE           
##  8 Adam Monroe   FALSE   TRUE                FALSE              FALSE           
##  9 Adam Strange  FALSE   FALSE               FALSE              FALSE           
## 10 Agent Bob     FALSE   FALSE               FALSE              FALSE           
## # … with 657 more rows, and 163 more variables: cold_resistance <lgl>,
## #   durability <lgl>, stealth <lgl>, energy_absorption <lgl>, flight <lgl>,
## #   danger_sense <lgl>, underwater_breathing <lgl>, marksmanship <lgl>,
## #   weapons_master <lgl>, power_augmentation <lgl>, animal_attributes <lgl>,
## #   longevity <lgl>, intelligence <lgl>, super_strength <lgl>,
## #   cryokinesis <lgl>, telepathy <lgl>, energy_armor <lgl>,
## #   energy_blasts <lgl>, duplication <lgl>, size_changing <lgl>, …
```

```r
superhero_info
```

```
## # A tibble: 734 × 10
##    name  gender eye_color race  hair_color height publisher skin_color alignment
##    <chr> <chr>  <chr>     <chr> <chr>       <dbl> <chr>     <chr>      <chr>    
##  1 A-Bo… Male   yellow    Human No Hair       203 Marvel C… <NA>       good     
##  2 Abe … Male   blue      Icth… No Hair       191 Dark Hor… blue       good     
##  3 Abin… Male   blue      Unga… No Hair       185 DC Comics red        good     
##  4 Abom… Male   green     Huma… No Hair       203 Marvel C… <NA>       bad      
##  5 Abra… Male   blue      Cosm… Black          NA Marvel C… <NA>       bad      
##  6 Abso… Male   blue      Human No Hair       193 Marvel C… <NA>       bad      
##  7 Adam… Male   blue      <NA>  Blond          NA NBC - He… <NA>       good     
##  8 Adam… Male   blue      Human Blond         185 DC Comics <NA>       good     
##  9 Agen… Female blue      <NA>  Blond         173 Marvel C… <NA>       good     
## 10 Agen… Male   brown     Human Brown         178 Marvel C… <NA>       good     
## # … with 724 more rows, and 1 more variable: weight <dbl>
```

```r
beachbugs_long
```

```
## # A tibble: 66 × 3
##     year site                    buglevels
##    <dbl> <chr>                       <dbl>
##  1  2013 Bondi Beach                 32.2 
##  2  2013 Bronte Beach                26.8 
##  3  2013 Clovelly Beach               9.28
##  4  2013 Coogee Beach                39.7 
##  5  2013 Gordons Bay (East)          24.8 
##  6  2013 Little Bay Beach           122.  
##  7  2013 Malabar Beach              101.  
##  8  2013 Maroubra Beach              47.1 
##  9  2013 South Maroubra Beach        39.3 
## 10  2013 South Maroubra Rockpool     96.4 
## # … with 56 more rows
```
…
6. Remind yourself what `beachbugs` looks like. Then generate a heatmap of buglevels by site and year. 
color it with `scale_fill_gradient(low="yellow", high="red")` or colors of your choice. you may find it looks best with one color!
(dont forget, `coord_flip()` is a quick way to improve the look of your plot if you dont like the default orientation)


```r
beachbugs_long
```

```
## # A tibble: 66 × 3
##     year site                    buglevels
##    <dbl> <chr>                       <dbl>
##  1  2013 Bondi Beach                 32.2 
##  2  2013 Bronte Beach                26.8 
##  3  2013 Clovelly Beach               9.28
##  4  2013 Coogee Beach                39.7 
##  5  2013 Gordons Bay (East)          24.8 
##  6  2013 Little Bay Beach           122.  
##  7  2013 Malabar Beach              101.  
##  8  2013 Maroubra Beach              47.1 
##  9  2013 South Maroubra Beach        39.3 
## 10  2013 South Maroubra Rockpool     96.4 
## # … with 56 more rows
```
…
```r
beachbugs_normalized<-beachbugs_long%>%
  group_by(site)%>%
  arrange(year, site)%>%
  mutate(max_buglevel = max(buglevels, na.rm=T)) %>% 
  mutate(buglevel=buglevels/max_buglevel)%>%
  select(year, site, buglevel)
beachbugs_normalized
```

```
## # A tibble: 66 × 3
## # Groups:   site [11]
##     year site                    buglevel
##    <dbl> <chr>                      <dbl>
##  1  2013 Bondi Beach                1    
##  2  2013 Bronte Beach               0.436
##  3  2013 Clovelly Beach             0.671
##  4  2013 Coogee Beach               0.666
##  5  2013 Gordons Bay (East)         0.635
##  6  2013 Little Bay Beach           1    
##  7  2013 Malabar Beach              1    
##  8  2013 Maroubra Beach             1    
##  9  2013 South Maroubra Beach       1    
## 10  2013 South Maroubra Rockpool    0.859
## # … with 56 more rows
```
…
#The normalized version is more helpful to interpret because it showcases buglevel for each beach in during a certain time period. I don't think that makes sense. 

8. Let's make a venn diagram of `superhero_info`, from 4 questions:
Is their alignment evil? 


```r
superhero_info
```

```
## # A tibble: 734 × 10
##    name  gender eye_color race  hair_color height publisher skin_color alignment
##    <chr> <chr>  <chr>     <chr> <chr>       <dbl> <chr>     <chr>      <chr>    
##  1 A-Bo… Male   yellow    Human No Hair       203 Marvel C… <NA>       good     
##  2 Abe … Male   blue      Icth… No Hair       191 Dark Hor… blue       good     
##  3 Abin… Male   blue      Unga… No Hair       185 DC Comics red        good     
##  4 Abom… Male   green     Huma… No Hair       203 Marvel C… <NA>       bad      
##  5 Abra… Male   blue      Cosm… Black          NA Marvel C… <NA>       bad      
##  6 Abso… Male   blue      Human No Hair       193 Marvel C… <NA>       bad      
##  7 Adam… Male   blue      <NA>  Blond          NA NBC - He… <NA>       good     
##  8 Adam… Male   blue      Human Blond         185 DC Comics <NA>       good     
##  9 Agen… Female blue      <NA>  Blond         173 Marvel C… <NA>       good     
## 10 Agen… Male   brown     Human Brown         178 Marvel C… <NA>       good     
## # … with 724 more rows, and 1 more variable: weight <dbl>
```
…
```
## Selecting by frequency
```

```r
super_hero_freq
```

```
## # A tibble: 50 × 2
##    power               frequency
##    <chr>                   <int>
##  1 super_strength            360
##  2 stamina                   289
##  3 durability                257
##  4 super_speed               249
##  5 agility                   242
##  6 flight                    212
##  7 accelerated_healing       178
##  8 reflexes                  164
##  9 intelligence              158
## 10 energy_blasts             147
## # … with 40 more rows
```
…
13.Who are some very powerful supers? Lets make a different word cloud with the `superhero_powers` data. Use the provided code to make the frequency table, then make a word cloud with it. You can use `hero_names` for the labels, and `sum_powers` for size.


```r
power_quantity <- superhero_powers %>% 
  pivot_longer(-hero_names, names_to = "power", values_to = "yes_or_no") %>% 
  group_by(hero_names) %>% 
  mutate(sum_powers = sum(yes_or_no, na.rm=T)) %>%
  arrange(desc(sum_powers), hero_names, desc(yes_or_no))
power_quantity
```

```
## # A tibble: 111,389 × 4
## # Groups:   hero_names [667]
##    hero_names power                 yes_or_no sum_powers
##    <chr>      <chr>                 <lgl>          <int>
##  1 Spectre    agility               TRUE              49
##  2 Spectre    accelerated_healing   TRUE              49
##  3 Spectre    dimensional_awareness TRUE              49
##  4 Spectre    stealth               TRUE              49
##  5 Spectre    energy_absorption     TRUE              49
##  6 Spectre    flight                TRUE              49
##  7 Spectre    marksmanship          TRUE              49
##  8 Spectre    longevity             TRUE              49
##  9 Spectre    intelligence          TRUE              49
## 10 Spectre    super_strength        TRUE              49
## # … with 111,379 more rows
```

```r
#we have to trim down to only the top 50, or it will crowd the image!
power_quantity <- power_quantity %>% 
  ungroup %>%
  distinct(hero_names, sum_powers) %>%
  slice_max(sum_powers, n = 50)
power_quantity
```

```
## # A tibble: 51 × 2
##    hero_names        sum_powers
##    <chr>                  <int>
##  1 Spectre                   49
##  2 Amazo                     44
##  3 Living Tribunal           35
##  4 Martian Manhunter         35
##  5 Man of Miracles           34
##  6 Captain Marvel            33
##  7 T-X                       33
##  8 Galactus                  32
##  9 T-1000                    32
## 10 Mister Mxyzptlk           31
## # … with 41 more rows
```
…
