…
```r
sydneybeaches
```

```
## # A tibble: 3,690 × 8
##    BeachId Region        Council Site  Longitude Latitude Date  `Enterococci (…`
##      <dbl> <chr>         <chr>   <chr>     <dbl>    <dbl> <chr>            <dbl>
##  1      25 Sydney City … Randwi… Clov…      151.    -33.9 02/0…               19
##  2      25 Sydney City … Randwi… Clov…      151.    -33.9 06/0…                3
##  3      25 Sydney City … Randwi… Clov…      151.    -33.9 12/0…                2
##  4      25 Sydney City … Randwi… Clov…      151.    -33.9 18/0…               13
##  5      25 Sydney City … Randwi… Clov…      151.    -33.9 30/0…                8
##  6      25 Sydney City … Randwi… Clov…      151.    -33.9 05/0…                7
##  7      25 Sydney City … Randwi… Clov…      151.    -33.9 11/0…               11
##  8      25 Sydney City … Randwi… Clov…      151.    -33.9 23/0…               97
##  9      25 Sydney City … Randwi… Clov…      151.    -33.9 07/0…                3
## 10      25 Sydney City … Randwi… Clov…      151.    -33.9 25/0…                0
## # … with 3,680 more rows
```
…
```r
sydneybeaches
```

```
## # A tibble: 3,690 × 8
##    beach_id region       council site  longitude latitude date  enterococci_cfu…
##       <dbl> <chr>        <chr>   <chr>     <dbl>    <dbl> <chr>            <dbl>
##  1       25 Sydney City… Randwi… Clov…      151.    -33.9 02/0…               19
##  2       25 Sydney City… Randwi… Clov…      151.    -33.9 06/0…                3
##  3       25 Sydney City… Randwi… Clov…      151.    -33.9 12/0…                2
##  4       25 Sydney City… Randwi… Clov…      151.    -33.9 18/0…               13
##  5       25 Sydney City… Randwi… Clov…      151.    -33.9 30/0…                8
##  6       25 Sydney City… Randwi… Clov…      151.    -33.9 05/0…                7
##  7       25 Sydney City… Randwi… Clov…      151.    -33.9 11/0…               11
##  8       25 Sydney City… Randwi… Clov…      151.    -33.9 23/0…               97
##  9       25 Sydney City… Randwi… Clov…      151.    -33.9 07/0…                3
## 10       25 Sydney City… Randwi… Clov…      151.    -33.9 25/0…                0
## # … with 3,680 more rows
```

2. Are these data "tidy" per the definitions of the tidyverse? How do you know? Are they in wide or long format?
#Yes, the data seems to be in the form of what we call "tidy". This data table follows the three rules, every column is a variable, every row is an observation, and every cell is a single value. This is in long format. 

3. We are only interested in the variables site, date, and enterococci_cfu_100ml. Make a new object focused on these variables only. Name the object `sydneybeaches_long`


```r
sydneybeaches_long<-sydneybeaches%>%
 select(site,date,enterococci_cfu_100ml)
sydneybeaches_long
```

```
## # A tibble: 3,690 × 3
##    site           date       enterococci_cfu_100ml
##    <chr>          <chr>                      <dbl>
##  1 Clovelly Beach 02/01/2013                    19
##  2 Clovelly Beach 06/01/2013                     3
##  3 Clovelly Beach 12/01/2013                     2
##  4 Clovelly Beach 18/01/2013                    13
##  5 Clovelly Beach 30/01/2013                     8
##  6 Clovelly Beach 05/02/2013                     7
##  7 Clovelly Beach 11/02/2013                    11
##  8 Clovelly Beach 23/02/2013                    97
##  9 Clovelly Beach 07/03/2013                     3
## 10 Clovelly Beach 25/03/2013                     0
## # … with 3,680 more rows
```
4. Pivot the data such that the dates are column names and each beach only appears once. Name the object `sydneybeaches_wide`


```r
sydneybeaches_wide<-sydneybeaches%>%
  pivot_wider(names_from = date,
              values_from = site)
sydneybeaches_wide
```

```
## # A tibble: 754 × 350
##    beach_id region      council longitude latitude enterococci_cfu… `02/01/2013`
##       <dbl> <chr>       <chr>       <dbl>    <dbl>            <dbl> <chr>       
##  1       25 Sydney Cit… Randwi…      151.    -33.9               19 Clovelly Be…
##  2       25 Sydney Cit… Randwi…      151.    -33.9                3 <NA>        
##  3       25 Sydney Cit… Randwi…      151.    -33.9                2 <NA>        
##  4       25 Sydney Cit… Randwi…      151.    -33.9               13 <NA>        
##  5       25 Sydney Cit… Randwi…      151.    -33.9                8 <NA>        
##  6       25 Sydney Cit… Randwi…      151.    -33.9                7 <NA>        
##  7       25 Sydney Cit… Randwi…      151.    -33.9               11 <NA>        
##  8       25 Sydney Cit… Randwi…      151.    -33.9               97 <NA>        
##  9       25 Sydney Cit… Randwi…      151.    -33.9                0 <NA>        
## 10       25 Sydney Cit… Randwi…      151.    -33.9                6 <NA>        
## # … with 744 more rows, and 343 more variables: `06/01/2013` <chr>,
## #   `12/01/2013` <chr>, `18/01/2013` <chr>, `30/01/2013` <chr>,
## #   `05/02/2013` <chr>, `11/02/2013` <chr>, `23/02/2013` <chr>,
## #   `07/03/2013` <chr>, `25/03/2013` <chr>, `02/04/2013` <chr>,
## #   `12/04/2013` <chr>, `18/04/2013` <chr>, `24/04/2013` <chr>,
## #   `01/05/2013` <chr>, `20/05/2013` <chr>, `31/05/2013` <chr>,
## #   `06/06/2013` <chr>, `12/06/2013` <chr>, `24/06/2013` <chr>, …
```

5. Pivot the data back so that the dates are data and not column names.


```r
sydneybeaches_long2<-sydneybeaches_wide%>%
  pivot_longer(-c(beach_id,region,council,longitude, latitude,enterococci_cfu_100ml),
                  names_to = "date",
               values_to = "beaches",
               values_drop_na = T)
               sydneybeaches_long2
```

```
## # A tibble: 3,690 × 8
##    beach_id region     council longitude latitude enterococci_cfu… date  beaches
##       <dbl> <chr>      <chr>       <dbl>    <dbl>            <dbl> <chr> <chr>  
##  1       25 Sydney Ci… Randwi…      151.    -33.9               19 02/0… Clovel…
##  2       25 Sydney Ci… Randwi…      151.    -33.9               19 19/0… Clovel…
##  3       25 Sydney Ci… Randwi…      151.    -33.9                3 06/0… Clovel…
##  4       25 Sydney Ci… Randwi…      151.    -33.9                3 07/0… Clovel…
##  5       25 Sydney Ci… Randwi…      151.    -33.9                3 01/0… Clovel…
##  6       25 Sydney Ci… Randwi…      151.    -33.9                3 14/0… Clovel…
##  7       25 Sydney Ci… Randwi…      151.    -33.9                3 22/0… Clovel…
##  8       25 Sydney Ci… Randwi…      151.    -33.9                3 20/1… Clovel…
##  9       25 Sydney Ci… Randwi…      151.    -33.9                3 08/1… Clovel…
## 10       25 Sydney Ci… Randwi…      151.    -33.9                3 16/0… Clovel…
## # … with 3,680 more rows
```

6. We haven't dealt much with dates yet, but separate the date into columns day, month, and year. Do this on the `sydneybeaches_long` data.


```r
sydneybeaches_sep<-sydneybeaches_long%>%
   separate(date, into= c("month", "day", "year"), sep = "/")
sydneybeaches_sep
```

```
## # A tibble: 3,690 × 5
##    site           month day   year  enterococci_cfu_100ml
##    <chr>          <chr> <chr> <chr>                 <dbl>
##  1 Clovelly Beach 02    01    2013                     19
##  2 Clovelly Beach 06    01    2013                      3
##  3 Clovelly Beach 12    01    2013                      2
##  4 Clovelly Beach 18    01    2013                     13
##  5 Clovelly Beach 30    01    2013                      8
##  6 Clovelly Beach 05    02    2013                      7
##  7 Clovelly Beach 11    02    2013                     11
##  8 Clovelly Beach 23    02    2013                     97
##  9 Clovelly Beach 07    03    2013                      3
## 10 Clovelly Beach 25    03    2013                      0
## # … with 3,680 more rows
```
…
```
## `summarise()` has grouped output by 'site'. You can override using the `.groups`
## argument.
```

```r
sydneybeaches_means
```

```
## # A tibble: 66 × 3
## # Groups:   site [11]
##    site                    year  mean_enterococci_cfu_100ml
##    <chr>                   <chr>                      <dbl>
##  1 Bondi Beach             2013                       32.2 
##  2 Bronte Beach            2013                       26.8 
##  3 Clovelly Beach          2013                        9.28
##  4 Coogee Beach            2013                       39.7 
##  5 Gordons Bay (East)      2013                       24.8 
##  6 Little Bay Beach        2013                      122.  
##  7 Malabar Beach           2013                      101.  
##  8 Maroubra Beach          2013                       47.1 
##  9 South Maroubra Beach    2013                       39.3 
## 10 South Maroubra Rockpool 2013                       96.4 
## # … with 56 more rows
```
…
