…
```r
wolves
```

```
## # A tibble: 1,986 × 23
##    pop     year age.cat sex   color   lat  long habitat human pop.density
##    <chr>  <dbl> <chr>   <chr> <chr> <dbl> <dbl>   <dbl> <dbl>       <dbl>
##  1 AK.PEN  2006 S       F     G      57.0 -158.    254.  10.4           8
##  2 AK.PEN  2006 S       M     G      57.0 -158.    254.  10.4           8
##  3 AK.PEN  2006 A       F     G      57.0 -158.    254.  10.4           8
##  4 AK.PEN  2006 S       M     B      57.0 -158.    254.  10.4           8
##  5 AK.PEN  2006 A       M     B      57.0 -158.    254.  10.4           8
##  6 AK.PEN  2006 A       M     G      57.0 -158.    254.  10.4           8
##  7 AK.PEN  2006 A       F     G      57.0 -158.    254.  10.4           8
##  8 AK.PEN  2006 P       M     G      57.0 -158.    254.  10.4           8
##  9 AK.PEN  2006 S       F     G      57.0 -158.    254.  10.4           8
## 10 AK.PEN  2006 P       M     G      57.0 -158.    254.  10.4           8
## # … with 1,976 more rows, and 13 more variables: pack.size <dbl>,
## #   standard.habitat <dbl>, standard.human <dbl>, standard.pop <dbl>,
## #   standard.packsize <dbl>, standard.latitude <dbl>, standard.longitude <dbl>,
## #   cav.binary <dbl>, cdv.binary <dbl>, cpv.binary <dbl>, chv.binary <dbl>,
## #   neo.binary <dbl>, toxo.binary <dbl>
```
…
```r
naniar::miss_var_summary(wolves)
```

```
## # A tibble: 23 × 3
##    variable    n_miss pct_miss
##    <chr>        <int>    <dbl>
##  1 toxo.binary    827   41.6  
##  2 color          616   31.0  
##  3 chv.binary     548   27.6  
##  4 neo.binary     538   27.1  
##  5 cav.binary     321   16.2  
##  6 age.cat        102    5.14 
##  7 cdv.binary      21    1.06 
##  8 sex             19    0.957
##  9 cpv.binary       7    0.352
## 10 pop              0    0    
## # … with 13 more rows
```


```r
wolves_data<-wolves%>%
na_if(NA)
wolves_data
```

```
## # A tibble: 1,986 × 23
##    pop     year age.cat sex   color   lat  long habitat human pop.density
##    <chr>  <dbl> <chr>   <chr> <chr> <dbl> <dbl>   <dbl> <dbl>       <dbl>
##  1 AK.PEN  2006 S       F     G      57.0 -158.    254.  10.4           8
##  2 AK.PEN  2006 S       M     G      57.0 -158.    254.  10.4           8
##  3 AK.PEN  2006 A       F     G      57.0 -158.    254.  10.4           8
##  4 AK.PEN  2006 S       M     B      57.0 -158.    254.  10.4           8
##  5 AK.PEN  2006 A       M     B      57.0 -158.    254.  10.4           8
##  6 AK.PEN  2006 A       M     G      57.0 -158.    254.  10.4           8
##  7 AK.PEN  2006 A       F     G      57.0 -158.    254.  10.4           8
##  8 AK.PEN  2006 P       M     G      57.0 -158.    254.  10.4           8
##  9 AK.PEN  2006 S       F     G      57.0 -158.    254.  10.4           8
## 10 AK.PEN  2006 P       M     G      57.0 -158.    254.  10.4           8
## # … with 1,976 more rows, and 13 more variables: pack.size <dbl>,
## #   standard.habitat <dbl>, standard.human <dbl>, standard.pop <dbl>,
## #   standard.packsize <dbl>, standard.latitude <dbl>, standard.longitude <dbl>,
## #   cav.binary <dbl>, cdv.binary <dbl>, cpv.binary <dbl>, chv.binary <dbl>,
## #   neo.binary <dbl>, toxo.binary <dbl>
```
…
```r
wolves_pop_us<-wolves%>%
  filter(pop%in%c("SE.AK", "ELLES", "SS.NWT", "INT.AK", "ONT"))
wolves_pop_us
```

```
## # A tibble: 150 × 23
##    pop    year age.cat sex   color   lat  long habitat human pop.density
##    <chr> <dbl> <chr>   <chr> <chr> <dbl> <dbl>   <dbl> <dbl>       <dbl>
##  1 ELLES  2014 S       M     G      80.5 -82.4    261.  0.02         7.1
##  2 ELLES  2014 S       F     G      80.5 -82.4    261.  0.02         7.1
##  3 ELLES  2014 A       F     G      80.5 -82.4    261.  0.02         7.1
##  4 ELLES  2014 A       M     G      80.5 -82.4    261.  0.02         7.1
##  5 ELLES  2015 A       M     G      80.5 -82.4    261.  0.02         7.1
##  6 ELLES  2015 A       F     G      80.5 -82.4    261.  0.02         7.1
##  7 ELLES  2016 A       F     G      80.5 -82.4    261.  0.02         7.1
##  8 ELLES  2016 S       F     G      80.5 -82.4    261.  0.02         7.1
##  9 ELLES  2017 A       F     G      80.5 -82.4    261.  0.02         7.1
## 10 ELLES  2017 A       M     G      80.5 -82.4    261.  0.02         7.1
## # … with 140 more rows, and 13 more variables: pack.size <dbl>,
## #   standard.habitat <dbl>, standard.human <dbl>, standard.pop <dbl>,
## #   standard.packsize <dbl>, standard.latitude <dbl>, standard.longitude <dbl>,
## #   cav.binary <dbl>, cdv.binary <dbl>, cpv.binary <dbl>, chv.binary <dbl>,
## #   neo.binary <dbl>, toxo.binary <dbl>
```
…
