…
```r
taxa<-select(homerange, "taxon", "common_name", "class", "order", "family", "genus", "species")
taxa
```

```
## # A tibble: 569 × 7
##    taxon         common_name             class   order   family   genus  species
##    <fct>         <chr>                   <chr>   <fct>   <chr>    <chr>  <chr>  
##  1 lake fishes   american eel            actino… anguil… anguill… angui… rostra…
##  2 river fishes  blacktail redhorse      actino… cyprin… catosto… moxos… poecil…
##  3 river fishes  central stoneroller     actino… cyprin… cyprini… campo… anomal…
##  4 river fishes  rosyside dace           actino… cyprin… cyprini… clino… fundul…
##  5 river fishes  longnose dace           actino… cyprin… cyprini… rhini… catara…
##  6 river fishes  muskellunge             actino… esocif… esocidae esox   masqui…
##  7 marine fishes pollack                 actino… gadifo… gadidae  polla… pollac…
##  8 marine fishes saithe                  actino… gadifo… gadidae  polla… virens 
##  9 marine fishes lined surgeonfish       actino… percif… acanthu… acant… lineat…
## 10 marine fishes orangespine unicornfish actino… percif… acanthu… naso   litura…
## # … with 559 more rows
```
…
**7. Make two new data frames, one which is restricted to carnivores and another that is restricted to herbivores.**  


```r
carnivores <- filter(homerange, trophic_guild=="carnivore")
carnivores 
```

```
## # A tibble: 342 × 24
##    taxon   common_name   class   order  family genus species primarymethod n    
##    <fct>   <chr>         <chr>   <fct>  <chr>  <chr> <chr>   <chr>         <chr>
##  1 lake f… american eel  actino… angui… angui… angu… rostra… telemetry     16   
##  2 river … blacktail re… actino… cypri… catos… moxo… poecil… mark-recaptu… <NA> 
##  3 river … central ston… actino… cypri… cypri… camp… anomal… mark-recaptu… 20   
##  4 river … rosyside dace actino… cypri… cypri… clin… fundul… mark-recaptu… 26   
##  5 river … longnose dace actino… cypri… cypri… rhin… catara… mark-recaptu… 17   
##  6 river … muskellunge   actino… esoci… esoci… esox  masqui… telemetry     5    
##  7 marine… pollack       actino… gadif… gadid… poll… pollac… telemetry     2    
##  8 marine… saithe        actino… gadif… gadid… poll… virens  telemetry     2    
##  9 marine… giant treval… actino… perci… caran… cara… ignobi… telemetry     4    
## 10 lake f… rock bass     actino… perci… centr… ambl… rupest… mark-recaptu… 16   
## # … with 332 more rows, and 15 more variables: mean_mass_g <dbl>,
## #   log10_mass <dbl>, alternative_mass_reference <chr>, mean_hra_m2 <dbl>,
## #   log10_hra <dbl>, hra_reference <chr>, realm <chr>, thermoregulation <chr>,
## #   locomotion <chr>, trophic_guild <chr>, dimension <dbl>, preymass <dbl>,
## #   log10_preymass <dbl>, ppmr <dbl>, prey_size_reference <chr>
```


```r
herbivores <- filter(homerange, trophic_guild=="herbivore")
herbivores
```

```
## # A tibble: 227 × 24
##    taxon  common_name   class   order  family  genus species primarymethod n    
##    <fct>  <chr>         <chr>   <fct>  <chr>   <chr> <chr>   <chr>         <chr>
##  1 marin… lined surgeo… actino… perci… acanth… acan… lineat… direct obser… <NA> 
##  2 marin… orangespine … actino… perci… acanth… naso  litura… telemetry     8    
##  3 marin… bluespine un… actino… perci… acanth… naso  unicor… telemetry     7    
##  4 marin… redlip blenny actino… perci… blenni… ophi… atlant… direct obser… 20   
##  5 marin… bermuda chub  actino… perci… kyphos… kyph… sectat… telemetry     11   
##  6 marin… cherubfish    actino… perci… pomaca… cent… argi    direct obser… <NA> 
##  7 marin… damselfish    actino… perci… pomace… chro… chromis direct obser… <NA> 
##  8 marin… twinspot dam… actino… perci… pomace… chry… biocel… direct obser… 18   
##  9 marin… wards damsel  actino… perci… pomace… poma… wardi   direct obser… <NA> 
## 10 marin… australian g… actino… perci… pomace… steg… apical… direct obser… <NA> 
## # … with 217 more rows, and 15 more variables: mean_mass_g <dbl>,
## #   log10_mass <dbl>, alternative_mass_reference <chr>, mean_hra_m2 <dbl>,
## #   log10_hra <dbl>, hra_reference <chr>, realm <chr>, thermoregulation <chr>,
## #   locomotion <chr>, trophic_guild <chr>, dimension <dbl>, preymass <dbl>,
## #   log10_preymass <dbl>, ppmr <dbl>, prey_size_reference <chr>
```
…
**10. As measured by the data, which snake species has the smallest homerange? Show all of your work, please. Look this species up online and tell me about it!** **Snake is found in taxon column**    


```r
snake_sss <- filter(homerange, taxon=="snakes") %>% select("genus", "species", "mean_hra_m2") %>% arrange("mean_hra_m2") 
arrange(snake_sss, desc(mean_hra_m2))
```

```
## # A tibble: 41 × 3
##    genus        species           mean_hra_m2
##    <chr>        <chr>                   <dbl>
##  1 crotalus     horridus             2579600 
##  2 drymarchon   couperi              1853000 
##  3 crotalus     oreganus concolor    1178000 
##  4 pituophis    melanoleucus          701000 
##  5 heterodon    platirhinos           516375 
##  6 lampropeltis getula getula         495000 
##  7 masticophis  flagellum             429300 
##  8 thamnophis   gigal                 374800 
##  9 crotalus     scutulatus            316000 
## 10 montivipera  raddei                245929.
## # … with 31 more rows
```
…
